{
    "homeland": {
        "date": "",
        "author": "Jakob Meier & Franz Juling",
        "title": "Homeland",
        "url": "https://comcloudway.gitlab.io/poemhub-db/homeland.md",
        "categories":["spring", "lifestyle"]
    },
    "spring": {
        "url": "https://comcloudway.gitlab.io/poemhub-db/spring.md",
        "date":"",
        "author":"Constantin Rohde & Leon Lesske",
        "categories": ["spring"],
        "title": "Spring"
    }
}
